counter.vcd
$date
     Aug 21, 2012       21:46:47
$end

$version
              IUS SystemC 10.20.s112 --- Mar 28 2012 20:04:35
$end

$timescale
     1 ms
$end

$scope module SystemC $end
$var wire    8  (  data_in [7:0]  $end
$var wire    8  )  data_out [7:0]  $end
$var wire    1  !  clock       $end
$var wire    1  "  reset       $end
$var wire    1  #  read       $end
$var wire    1  $  write       $end
$var wire    1  %  full       $end
$var wire    1  &  half_full       $end
$var wire    1  '  data_present       $end
$upscope $end
$enddefinitions  $end

$comment
All initial values are dumped below at time 0 sec = 0 timescale units.
$end

$dumpvars
bXXXXXXXX (
bXXXXXXXX )
1!
1"
0#
0$
0%
0&
0'
$end

#1
0!
#6
1!
#11
0!
#16
1!
#21
0!
#26
1!
#31
0!
#36
1!
#41
0!
#46
1!
#51
0!
#56
1!
#61
0!
#66
1!
#71
0!
#76
1!
#81
0!
#86
1!
#91
0!
#96
1!
#101
0!
#106
1!
#111
0!
#116
1!
#121
0!
#126
1!
#131
0!
#136
1!
#141
0!
#146
1!
#151
0!
#156
1!
#161
0!
#166
1!
#171
0!
#176
1!
#181
0!
#186
1!
#191
0!
#196
1!
#201
0!
#206
1!
#211
0!
#216
1!
#221
0!
#226
1!
#231
0!
#236
1!
#241
0!
#246
1!
#251
0!
#256
1!
#261
0!
#266
1!
#271
0!
#276
1!
#281
0!
#286
1!
#291
0!
#296
1!
#301
0!
#306
1!
#311
0!
#316
1!
#321
0!
#326
1!
#331
0!
#336
1!
#341
0!
#346
1!
#351
0!
#356
1!
#361
0!
#366
1!
#371
0!
#376
1!
#381
0!
#386
1!
#391
0!
#396
1!
#401
0!
#406
1!
#411
0!
#416
1!
#421
0!
#426
1!
#431
0!
#436
1!
#441
0!
#446
1!
#451
0!
#456
1!
#461
0!
#466
1!
#471
0!
#476
1!
#481
0!
#486
1!
#491
0!
#496
1!
#501
0!
#506
1!
#511
0!
#516
1!
#521
0!
#526
1!
#531
0!
#536
1!
#541
0!
#546
1!
#551
0!
#556
1!
#561
0!
#566
1!
#571
0!
#576
1!
#581
0!
#586
1!
#591
0!
#596
1!
#601
0!
#606
1!
#611
0!
#616
1!
#621
0!
#626
1!
#631
0!
#636
1!
#641
0!
#646
1!
#651
0!
#656
1!
#661
0!
#666
1!
#671
0!
#676
1!
#681
0!
#686
1!
#691
0!
#696
1!
#701
0!
#706
1!
#711
0!
#716
1!
#721
0!
#726
1!
#731
0!
#736
1!
#741
0!
#746
1!
#751
0!
#756
1!
#761
0!
#766
1!
#771
0!
#776
1!
#781
0!
#786
1!
#791
0!
#796
1!
#801
0!
#806
1!
#811
0!
#816
1!
#821
0!
#826
1!
#831
0!
#836
1!
#841
0!
#846
1!
#851
0!
#856
1!
#861
0!
#866
1!
#871
0!
#876
1!
#881
0!
#886
1!
#891
0!
#896
1!
#901
0!
#906
1!
#911
0!
#916
1!
#921
0!
#926
1!
#931
0!
#936
1!
#941
0!
#946
1!
#951
0!
#956
1!
#961
0!
#966
1!
#971
0!
#976
1!
#981
0!
#986
1!
#991
0!
#996
1!
#1000
b1000010 (
0"
#1001
b11011101 (
0!
#1006
b101010 (
1!
#1011
b11000110 (
0!
#1016
b110111 (
1!
#1021
b10100111 (
0!
#1026
b1101 (
1!
#1031
b1011 (
0!
#1036
b111011 (
1!
#1041
b10010100 (
0!
#1046
b11011011 (
1!
#1051
b10110 (
0!
#1056
b10010101 (
1!
#1061
b1110000 (
0!
#1066
b11111011 (
1!
#1071
b1000111 (
0!
#1076
b1101111 (
1!
#1081
b111001 (
0!
#1086
b11001011 (
1!
#1091
b10101100 (
0!
#1096
1!
#1101
0!
#1106
1!
#1111
0!
#1116
1!
#1121
0!
#1126
1!
#1131
0!
#1136
1!
#1141
0!
#1146
1!
#1151
0!
#1156
1!
#1161
0!
#1166
1!
#1171
0!
#1176
1!
#1181
0!
#1186
1!
#1191
0!
#1196
1$
1!
#1201
0!
#1206
1!
#1206
b10101100 )
1'
#1211
0!
#1216
0$
1!
#1221
b11001101 (
0!
#1226
b1000101 (
1!
#1231
b10110111 (
0!
#1236
b100101 (
1!
#1241
b11010000 (
0!
#1246
b11001010 (
1!
#1251
b1010111 (
0!
#1256
b1011000 (
1!
#1261
b11000100 (
0!
#1266
b101101 (
1!
#1271
b10110 (
0!
#1276
b110 (
1!
#1281
b1010 (
0!
#1286
b1000000 (
1!
#1291
b11001100 (
0!
#1296
b1000001 (
1!
#1301
b11100111 (
0!
#1306
b11011001 (
1!
#1311
b1001100 (
0!
#1316
1!
#1321
0!
#1326
1!
#1331
0!
#1336
1!
#1341
0!
#1346
1!
#1351
0!
#1356
1!
#1361
0!
#1366
1!
#1371
0!
#1376
1!
#1381
0!
#1386
1!
#1391
0!
#1396
1#
1!
#1401
0!
#1406
1!
#1411
0!
#1416
0#
1$
1!
#1416
0'
#1421
0!
#1426
1!
#1426
b1001100 )
1'
#1431
0!
#1436
0$
1!
#1441
b100010 (
0!
#1446
b1101101 (
1!
#1451
b100111 (
0!
#1456
b111001 (
1!
#1461
b10 (
0!
#1466
b10011000 (
1!
#1471
b110100 (
0!
#1476
b1001001 (
1!
#1481
b111 (
0!
#1486
b1101101 (
1!
#1491
b10100 (
0!
#1496
b10110011 (
1!
#1501
b111010 (
0!
#1506
b1011001 (
1!
#1511
b1101011 (
0!
#1516
b1100000 (
1!
#1521
b101001 (
0!
#1526
b110101 (
1!
#1531
b10110111 (
0!
#1536
1!
#1541
0!
#1546
1!
#1551
0!
#1556
1!
#1561
0!
#1566
1!
#1571
0!
#1576
1!
#1581
0!
#1586
1!
#1591
0!
#1596
1!
#1601
0!
#1606
1!
#1611
0!
#1616
1!
#1621
0!
#1626
1!
#1631
0!
#1636
1$
1!
#1641
0!
#1646
1!
#1651
0!
#1656
0$
1!
#1661
b10000001 (
0!
#1666
b11111001 (
1!
#1671
b11100100 (
0!
#1676
b10010111 (
1!
#1681
b11111111 (
0!
#1686
b11101110 (
1!
#1691
b11010111 (
0!
#1696
b11001011 (
1!
#1701
b101111 (
0!
#1706
b10111110 (
1!
#1711
b10100100 (
0!
#1716
b1111011 (
1!
#1721
b11100001 (
0!
#1726
b10010 (
1!
#1731
b10100010 (
0!
#1736
b11010 (
1!
#1741
b10100 (
0!
#1746
b111010 (
1!
#1751
b1001110 (
0!
#1756
1!
#1761
0!
#1766
1!
#1771
0!
#1776
1!
#1781
0!
#1786
1!
#1791
0!
#1796
1!
#1801
0!
#1806
1!
#1811
0!
#1816
1#
1!
#1821
0!
#1826
1!
#1831
0!
#1836
0#
1!
#1841
b10110111 )
0!
#1846
1!
#1851
0!
#1856
1$
1!
#1861
0!
#1866
1!
#1871
0!
#1876
0$
1!
#1881
b1011110 (
0!
#1886
b1000001 (
1!
#1891
b10111011 (
0!
#1896
b1110010 (
1!
#1901
b11110101 (
0!
#1906
b11110110 (
1!
#1911
b11001100 (
0!
#1916
b1100000 (
1!
#1921
b1010110 (
0!
#1926
b11110101 (
1!
#1931
b10010101 (
0!
#1936
b1101 (
1!
#1941
b1110111 (
0!
#1946
b10001111 (
1!
#1951
b11110001 (
0!
#1956
b1110 (
1!
#1961
b10001110 (
0!
#1966
b11011111 (
1!
#1971
b11100110 (
0!
#1976
1!
#1981
0!
#1986
1!
#1991
0!
#1996
1!
#2001
0!
#2006
1!
#2011
0!
#2016
1!
#2021
0!
#2026
1!
#2031
0!
#2036
1!
#2041
0!
#2046
1!
#2051
0!
#2056
1!
#2061
0!
#2066
1!
#2071
0!
#2076
1$
1!
#2081
0!
#2086
1!
#2091
0!
#2096
0$
1!
#2101
b1011010 (
0!
#2106
b1110 (
1!
#2111
b10100100 (
0!
#2116
b11111110 (
1!
#2121
b10001001 (
0!
#2126
b10000101 (
1!
#2131
b10000 (
0!
#2136
b101011 (
1!
#2141
b10011111 (
0!
#2146
b100101 (
1!
#2151
b1100110 (
0!
#2156
b11101101 (
1!
#2161
b10000011 (
0!
#2166
b10100111 (
1!
#2171
b10101001 (
0!
#2176
b11110101 (
1!
#2181
b10011100 (
0!
#2186
b10011111 (
1!
#2191
b11000001 (
0!
#2196
1!
#2201
0!
#2206
1!
#2211
0!
#2216
1!
#2221
0!
#2226
1!
#2231
0!
#2236
1#
1!
#2241
0!
#2246
1!
#2251
0!
#2256
0#
1!
#2261
b1001110 )
0!
#2266
1!
#2271
0!
#2276
1!
#2281
0!
#2286
1!
#2291
0!
#2296
1$
1!
#2301
0!
#2306
1!
#2311
0!
#2316
0$
1!
#2321
b11111100 (
0!
#2326
b11110101 (
1!
#2331
b10110111 (
0!
#2336
b10010010 (
1!
#2341
b10 (
0!
#2346
b101110 (
1!
#2351
b100001 (
0!
#2356
b11110011 (
1!
#2361
b111100 (
0!
#2366
b10101111 (
1!
#2371
b11010010 (
0!
#2376
b100010 (
1!
#2381
b1001 (
0!
#2386
b11100000 (
1!
#2391
b11000111 (
0!
#2396
b1000 (
1!
#2401
b1101001 (
0!
#2406
b1001100 (
1!
#2411
b11000 (
0!
#2416
1!
#2421
0!
#2426
1!
#2431
0!
#2436
1!
#2441
0!
#2446
1!
#2451
0!
#2456
1!
#2461
0!
#2466
1!
#2471
0!
#2476
1!
#2481
0!
#2486
1!
#2491
0!
#2496
1!
#2501
0!
#2506
1!
#2511
0!
#2516
1$
1!
#2521
0!
#2526
1!
#2531
0!
#2536
0$
1!
#2541
b10010100 (
0!
#2546
b11101100 (
1!
#2551
b111101 (
0!
#2556
b11111010 (
1!
#2561
b11011001 (
0!
#2566
b11000000 (
1!
#2571
b10100010 (
0!
#2576
b10000010 (
1!
#2581
b10110110 (
0!
#2586
b111110 (
1!
#2591
b100001 (
0!
#2596
b1110111 (
1!
#2601
b111011 (
0!
#2606
b10110 (
1!
#2611
b101110 (
0!
#2616
b11001101 (
1!
#2621
b11000 (
0!
#2626
b1011100 (
1!
#2631
b11101110 (
0!
#2636
1!
#2641
0!
#2646
1!
#2651
0!
#2656
1#
1!
#2661
0!
#2666
1!
#2671
0!
#2676
0#
1!
#2681
b11100110 )
0!
#2686
1!
#2691
0!
#2696
1!
#2701
0!
#2706
1!
#2711
0!
#2716
1!
#2721
0!
#2726
1!
#2731
0!
#2736
1$
1!
#2741
0!
#2746
1!
#2751
0!
#2756
0$
1!
#2761
b1011 (
0!
#2766
b10011001 (
1!
#2771
b10011101 (
0!
#2776
b11011101 (
1!
#2781
b10111011 (
0!
#2786
b10100111 (
1!
#2791
b10111101 (
0!
#2796
b10000010 (
1!
#2801
b10101111 (
0!
#2806
b100110 (
1!
#2811
b11001111 (
0!
#2816
b11000111 (
1!
#2821
b10111011 (
0!
#2826
1!
#2831
b101 (
0!
#2836
b10110101 (
1!
#2841
b10010100 (
0!
#2846
b11000101 (
1!
#2851
b1010111 (
0!
#2856
1!
#2861
0!
#2866
1!
#2871
0!
#2876
1!
#2881
0!
#2886
1!
#2891
0!
#2896
1!
#2901
0!
#2906
1!
#2911
0!
#2916
1!
#2921
0!
#2926
1!
#2931
0!
#2936
1!
#2941
0!
#2946
1!
#2951
0!
#2956
1$
1!
#2961
0!
#2966
1!
#2966
1&
#2971
0!
#2976
0$
1!
#2981
b10111 (
0!
#2986
b1111011 (
1!
#2991
b10010110 (
0!
#2996
b111000 (
1!
#3001
b11110011 (
0!
#3006
b11010001 (
1!
#3011
b1001111 (
0!
#3016
b100001 (
1!
#3021
b10011110 (
0!
#3026
b1100111 (
1!
#3031
b1111110 (
0!
#3036
b10001100 (
1!
#3041
b1110011 (
0!
#3046
b10111 (
1!
#3051
b101001 (
0!
#3056
b1010000 (
1!
#3061
b11010010 (
0!
#3066
b11010000 (
1!
#3071
b1110 (
0!
#3076
1#
1!
#3081
0!
#3086
1!
#3091
0!
#3096
0#
1!
#3096
b11000001 )
0&
#3101
0!
#3106
1!
#3111
0!
#3116
1!
#3121
0!
#3126
1!
#3131
0!
#3136
1!
#3141
0!
#3146
1!
#3151
0!
#3156
1!
#3161
0!
#3166
1!
#3171
0!
#3176
1$
1!
#3181
0!
#3186
1!
#3186
1&
#3191
0!
#3196
0$
1!
#3201
b1010101 (
0!
#3206
b1111111 (
1!
#3211
b110100 (
0!
#3216
b100100 (
1!
#3221
b1000111 (
0!
#3226
b11101111 (
1!
#3231
b11011111 (
0!
#3236
b1001100 (
1!
#3241
b10100101 (
0!
#3246
b1110011 (
1!
#3251
b10001 (
0!
#3256
b11111100 (
1!
#3261
b10001010 (
0!
#3266
b10001101 (
1!
#3271
b10010010 (
0!
#3276
b11000011 (
1!
#3281
b10000000 (
0!
#3286
b1100011 (
1!
#3291
b10010 (
0!
#3296
1!
#3301
0!
#3306
1!
#3311
0!
#3316
1!
#3321
0!
#3326
1!
#3331
0!
#3336
1!
#3341
0!
#3346
1!
#3351
0!
#3356
1!
#3361
0!
#3366
1!
#3371
0!
#3376
1!
#3381
0!
#3386
1!
#3391
0!
#3396
1$
1!
#3401
0!
#3406
1!
#3411
0!
#3416
0$
1!
#3421
b10100001 (
0!
#3426
b1 (
1!
#3431
b1111001 (
0!
#3436
b11111 (
1!
#3441
b10001101 (
0!
#3446
b11101100 (
1!
#3451
b110110 (
0!
#3456
b10110111 (
1!
#3461
b111101 (
0!
#3466
b1001 (
1!
#3471
b10000111 (
0!
#3476
b1001011 (
1!
#3481
b1011110 (
0!
#3486
b111 (
1!
#3491
b1111111 (
0!
#3496
b10000010 (
1#
1!
#3501
b1001110 (
0!
#3506
b1101111 (
1!
#3511
b1100001 (
0!
#3516
0#
1!
#3521
b11000 )
0!
#3526
1!
#3531
0!
#3536
1!
#3541
0!
#3546
1!
#3551
0!
#3556
1!
#3561
0!
#3566
1!
#3571
0!
#3576
1!
#3581
0!
#3586
1!
#3591
0!
#3596
1!
#3601
0!
#3606
1!
#3611
0!
#3616
1$
1!
#3621
0!
#3626
1!
#3631
0!
#3636
0$
1!
#3641
b10011010 (
0!
#3646
b10100 (
1!
#3651
b11010100 (
0!
#3656
b10101011 (
1!
#3661
b10000 (
0!
#3666
b1011111 (
1!
#3671
b111000 (
0!
#3676
b10100011 (
1!
#3681
b100010 (
0!
#3686
b10111000 (
1!
#3691
b110 (
0!
#3696
b110100 (
1!
#3701
b1011010 (
0!
#3706
b1000 (
1!
#3711
b10101101 (
0!
#3716
b1111001 (
1!
#3721
b10010101 (
0!
#3726
b10011010 (
1!
#3731
b10110000 (
0!
#3736
1!
#3741
0!
#3746
1!
#3751
0!
#3756
1!
#3761
0!
#3766
1!
#3771
0!
#3776
1!
#3781
0!
#3786
1!
#3791
0!
#3796
1!
#3801
0!
#3806
1!
#3811
0!
#3816
1!
#3821
0!
#3826
1!
#3831
0!
#3836
1$
1!
#3841
0!
#3846
1!
#3851
0!
#3856
0$
1!
#3861
b1001100 (
0!
#3866
b11010111 (
1!
#3871
b10111001 (
0!
#3876
b11010100 (
1!
#3881
b100010 (
0!
#3886
b10111 (
1!
#3891
b11011011 (
0!
#3896
b10100001 (
1!
#3901
b10011001 (
0!
#3906
b101001 (
1!
#3911
b10000 (
0!
#3916
b11111010 (
1#
1!
#3921
b11000011 (
0!
#3926
b100100 (
1!
#3931
b11001110 (
0!
#3936
b1101110 (
0#
1!
#3941
b110101 (
b11101110 )
0!
#3946
b101101 (
1!
#3951
b10100111 (
0!
#3956
1!
#3961
0!
#3966
1!
#3971
0!
#3976
1!
#3981
0!
#3986
1!
#3991
0!
#3996
1!
#4001
0!
#4006
1!
#4011
0!
#4016
1!
#4021
0!
#4026
1!
#4031
0!
#4036
1!
#4041
0!
#4046
1!
#4051
0!
#4056
1$
1!
#4061
0!
#4066
1!
#4071
0!
#4076
0$
1!
#4081
b11011000 (
0!
#4086
b1001111 (
1!
#4091
b1011111 (
0!
#4096
b11011110 (
1!
#4101
b10000011 (
0!
#4106
b10111001 (
1!
#4111
b11100110 (
0!
#4116
b110001 (
1!
#4121
b110011 (
0!
#4126
b1111100 (
1!
#4131
b11001011 (
0!
#4136
b11100011 (
1!
#4141
b11001000 (
0!
#4146
b10100010 (
1!
#4151
b10011100 (
0!
#4156
1!
#4161
b11000100 (
0!
#4166
b10110011 (
1!
#4171
b1110111 (
0!
#4176
1!
#4181
0!
#4186
1!
#4191
0!
#4196
1!
#4201
0!
#4206
1!
#4211
0!
#4216
1!
#4221
0!
#4226
1!
#4231
0!
#4236
1!
#4241
0!
#4246
1!
#4251
0!
#4256
1!
#4261
0!
#4266
1!
#4271
0!
#4276
1$
1!
#4281
0!
#4286
1!
#4291
0!
#4296
0$
1!
#4296
1%
#4301
b1100101 (
0!
#4306
b1001100 (
1!
#4311
b10100000 (
0!
#4316
b1110110 (
1!
#4321
b1000110 (
0!
#4326
b1100011 (
1!
#4331
b10011010 (
0!
#4336
b10100 (
1#
1!
#4341
b11010010 (
0!
#4346
b11001111 (
1!
#4346
0%
#4351
b1000010 (
0!
#4356
b1111001 (
0#
1!
#4361
b10100111 (
b1010111 )
0!
#4366
b10010001 (
1!
#4371
b11011000 (
0!
#4376
b10000110 (
1!
#4381
b10101 (
0!
#4386
b10010010 (
1!
#4391
b1101100 (
0!
#4396
1!
#4401
0!
#4406
1!
#4411
0!
#4416
1!
#4421
0!
#4426
1!
#4431
0!
#4436
1!
#4441
0!
#4446
1!
#4451
0!
#4456
1!
#4461
0!
#4466
1!
#4471
0!
#4476
1!
#4481
0!
#4486
1!
#4491
0!
#4496
1$
1!
#4501
0!
#4506
1!
#4511
0!
#4516
0$
1!
#4516
1%
#4521
b1000110 (
0!
#4526
b11000101 (
1!
#4531
b11101000 (
0!
#4536
b10001 (
1!
#4541
b10101000 (
0!
#4546
b10110001 (
1!
#4551
b10110011 (
0!
#4556
b1000100 (
1!
#4561
b1001101 (
0!
#4566
b1110111 (
1!
#4571
b11110111 (
0!
#4576
b11000101 (
1!
#4581
b11011100 (
0!
#4586
b1000011 (
1!
#4591
b1100101 (
0!
#4596
b1010010 (
1!
#4601
b10001001 (
0!
#4606
b11001001 (
1!
#4611
b11101101 (
0!
#4616
1!
#4621
0!
#4626
1!
#4631
0!
#4636
1!
#4641
0!
#4646
1!
#4651
0!
#4656
1!
#4661
0!
#4666
1!
#4671
0!
#4676
1!
#4681
0!
#4686
1!
#4691
0!
#4696
1!
#4701
0!
#4706
1!
#4711
0!
#4716
1$
1!
#4721
0!
#4726
1!
#4731
0!
#4736
0$
1!
#4741
b10011101 (
0!
#4746
b10011011 (
1!
#4751
b10111100 (
0!
#4756
b11011111 (
1#
1!
#4761
b10100 (
0!
#4766
b1100100 (
1!
#4766
0%
#4771
b1110001 (
0!
#4776
b11101100 (
0#
1!
#4781
b11101010 (
b1110 )
0!
#4786
b10000110 (
1!
#4791
b1111110 (
0!
#4796
b1010110 (
1!
#4801
b11001100 (
0!
#4806
b1000011 (
1!
#4811
b111111 (
0!
#4816
b11011101 (
1!
#4821
b11101011 (
0!
#4826
b11110000 (
1!
#4831
b10010000 (
0!
#4836
1!
#4841
0!
#4846
1!
#4851
0!
#4856
1!
#4861
0!
#4866
1!
#4871
0!
#4876
1!
#4881
0!
#4886
1!
#4891
0!
#4896
1!
#4901
0!
#4906
1!
#4911
0!
#4916
1!
#4921
0!
#4926
1!
#4931
0!
#4936
1$
1!
#4941
0!
#4946
1!
#4951
0!
#4956
0$
1!
#4956
1%
#4961
b101111 (
0!
#4966
b111101 (
1!
#4971
b111 (
0!
#4976
b100110 (
1!
#4981
b10 (
0!
#4986
b11100011 (
1!
#4991
b1101001 (
0!
#4996
b1101000 (
1!
#5001
b110110 (
0!
#5006
b11110010 (
1!
#5011
b110001 (
0!
#5016
b100011 (
1!
#5021
b10010000 (
0!
#5026
b11001100 (
1!
#5031
b11011111 (
0!
#5036
b1101111 (
1!
#5041
b11100000 (
0!
#5046
b1000011 (
1!
#5051
b11100000 (
0!
#5056
1!
#5061
0!
#5066
1!
#5071
0!
#5076
1!
#5081
0!
#5086
1!
#5091
0!
#5096
1!
#5101
0!
#5106
1!
#5111
0!
#5116
1!
#5121
0!
#5126
1!
#5131
0!
#5136
1!
#5141
0!
#5146
1!
#5151
0!
#5156
1$
1!
#5161
0!
#5166
1!
#5171
0!
#5176
1#
0$
1!
#5181
b11001100 (
0!
#5186
b101101 (
1!
#5186
0%
#5191
b1100110 (
0!
#5196
b1001011 (
0#
1!
#5201
b10000100 (
b10010 )
0!
#5206
b110010 (
1!
#5211
b10001110 (
0!
#5216
b11000011 (
1!
#5221
b1111 (
0!
#5226
b1111010 (
1!
#5231
b10110011 (
0!
#5236
b10011111 (
1!
#5241
b10101001 (
0!
#5246
b11110000 (
1!
#5251
b10100110 (
0!
#5256
b11010000 (
1!
#5261
b11110011 (
0!
#5266
b10001010 (
1!
#5271
b111001 (
0!
#5276
1!
#5281
0!
#5286
1!
#5291
0!
#5296
1!
#5301
0!
#5306
1!
#5311
0!
#5316
1!
#5321
0!
#5326
1!
#5331
0!
#5336
1!
#5341
0!
#5346
1!
#5351
0!
#5356
1!
#5361
0!
#5366
1!
#5371
0!
#5376
1$
1!
#5381
0!
#5386
1!
#5391
0!
#5396
0$
1!
#5396
1%
#5401
b1011011 (
0!
#5406
b11000000 (
1!
#5411
b101100 (
0!
#5416
b10001100 (
1!
#5421
b11100011 (
0!
#5426
b10111100 (
1!
#5431
b1011000 (
0!
#5436
b11000010 (
1!
#5441
b101011 (
0!
#5446
b111000 (
1!
#5451
b110 (
0!
#5456
b1100 (
1!
#5461
b100 (
0!
#5466
b110011 (
1!
#5471
b1110010 (
0!
#5476
b1001111 (
1!
#5481
b10110111 (
0!
#5486
b10100101 (
1!
#5491
b11011110 (
0!
#5496
1!
#5501
0!
#5506
1!
#5511
0!
#5516
1!
#5521
0!
#5526
1!
#5531
0!
#5536
1!
#5541
0!
#5546
1!
#5551
0!
#5556
1!
#5561
0!
#5566
1!
#5571
0!
#5576
1!
#5581
0!
#5586
1!
#5591
0!
#5596
1#
1$
1!
#5601
0!
#5606
1!
#5611
0!
#5616
0#
0$
1!
#5621
b1111010 (
b1100001 )
0!
#5626
b10110100 (
1!
#5631
b1011000 (
0!
#5636
b101101 (
1!
#5641
b1010100 (
0!
#5646
b1 (
1!
#5651
b11110 (
0!
#5656
b11111010 (
1!
#5661
b11010001 (
0!
#5666
b10001 (
1!
#5671
b10000100 (
0!
#5676
b1011 (
1!
#5681
b1101100 (
0!
#5686
b1000100 (
1!
#5691
b110111 (
0!
#5696
b11111000 (
1!
#5701
b100111 (
0!
#5706
b11110011 (
1!
#5711
b1010000 (
0!
#5716
1!
#5721
0!
#5726
1!
#5731
0!
#5736
1!
#5741
0!
#5746
1!
#5751
0!
#5756
1!
#5761
0!
#5766
1!
#5771
0!
#5776
1!
#5781
0!
#5786
1!
#5791
0!
#5796
1!
#5801
0!
#5806
1!
#5811
0!
#5816
1$
1!
#5821
0!
#5826
1!
#5831
0!
#5836
0$
1!
#5841
b11101010 (
0!
#5846
b11110 (
1!
#5851
b10001000 (
0!
#5856
b11110000 (
1!
#5861
b101010 (
0!
#5866
b10001100 (
1!
#5871
b100011 (
0!
#5876
b10011101 (
1!
#5881
b11011100 (
0!
#5886
b11011011 (
1!
#5891
b1000010 (
0!
#5896
b10111010 (
1!
#5901
b1010101 (
0!
#5906
b11110110 (
1!
#5911
b10010 (
0!
#5916
b10000011 (
1!
#5921
b1001010 (
0!
#5926
b10011 (
1!
#5931
b10100001 (
0!
#5936
1!
#5941
0!
#5946
1!
#5951
0!
#5956
1!
#5961
0!
#5966
1!
#5971
0!
#5976
1!
#5981
0!
#5986
1!
#5991
0!
#5996
1!
#6001
0!
#6006
1!
#6011
0!
#6016
1#
1!
#6021
0!
#6026
1!
#6026
0%
#6031
0!
#6036
0#
1$
1!
#6041
b10110000 )
0!
#6046
1!
#6051
0!
#6056
0$
1!
#6056
1%
#6061
b1000101 (
0!
#6066
b11100101 (
1!
#6071
b10110010 (
0!
#6076
b11001001 (
1!
#6081
b11110000 (
0!
#6086
b11110 (
1!
#6091
b1110 (
0!
#6096
b100111 (
1!
#6101
b10110 (
0!
#6106
b110101 (
1!
#6111
b11010 (
0!
#6116
b1100110 (
1!
#6121
b11111 (
0!
#6126
b111000 (
1!
#6131
b11101110 (
0!
#6136
b1111 (
1!
#6141
b1100011 (
0!
#6146
b1111010 (
1!
#6151
b110011 (
0!
#6156
1!
#6161
0!
#6166
1!
#6171
0!
#6176
1!
#6181
0!
#6186
1!
#6191
0!
#6196
1!
#6201
0!
#6206
1!
#6211
0!
#6216
1!
#6221
0!
#6226
1!
#6231
0!
#6236
1!
#6241
0!
#6246
1!
#6251
0!
#6256
1$
1!
#6261
0!
#6266
1!
#6271
0!
#6276
0$
1!
#6281
b0 (
0!
#6286
b1010110 (
1!
#6291
b1110 (
0!
#6296
b1000010 (
1!
#6301
b10000 (
0!
#6306
b1100011 (
1!
#6311
b111000 (
0!
#6316
b100010 (
1!
#6321
b11100110 (
0!
#6326
b10000011 (
1!
#6331
b110110 (
0!
#6336
b10000111 (
1!
#6341
b11001000 (
0!
#6346
b11011 (
1!
#6351
b111001 (
0!
#6356
b10010001 (
1!
#6361
b1011 (
0!
#6366
b1010111 (
1!
#6371
b10011111 (
0!
#6376
1!
#6381
0!
#6386
1!
#6391
0!
#6396
1!
#6401
0!
#6406
1!
#6411
0!
#6416
1!
#6421
0!
#6426
1!
#6431
0!
#6436
1#
1!
#6441
0!
#6446
1!
#6446
0%
#6451
0!
#6456
0#
1!
#6461
b10100111 )
0!
#6466
1!
#6471
0!
#6476
1$
1!
#6481
0!
#6486
1!
#6491
0!
#6496
0$
1!
#6496
1%
#6501
b110010 (
0!
#6506
b1101101 (
1!
#6511
b11010101 (
0!
#6516
b1001100 (
1!
#6521
b11010011 (
0!
#6526
b11110100 (
1!
#6531
b10000100 (
0!
#6536
b11000001 (
1!
#6541
b100 (
0!
#6546
b11100111 (
1!
#6551
b111100 (
0!
#6556
b110111 (
1!
#6561
b11100111 (
0!
#6566
b10010010 (
1!
#6571
b1000101 (
0!
#6576
b101001 (
1!
#6581
b10100011 (
0!
#6586
b10101000 (
1!
#6591
b1100010 (
0!
#6596
1!
#6601
0!
#6606
1!
#6611
0!
#6616
1!
#6621
0!
#6626
1!
#6631
0!
#6636
1!
#6641
0!
#6646
1!
#6651
0!
#6656
1!
#6661
0!
#6666
1!
#6671
0!
#6676
1!
#6681
0!
#6686
1!
#6691
0!
#6696
1$
1!
#6701
0!
#6706
1!
#6711
0!
#6716
0$
1!
#6721
b11000101 (
0!
#6726
b10001111 (
1!
#6731
b11100101 (
0!
#6736
b11111011 (
1!
#6741
b10110 (
0!
#6746
b10101101 (
1!
#6751
b10110 (
0!
#6756
b1010000 (
1!
#6761
b111110 (
0!
#6766
b100001 (
1!
#6771
b10100111 (
0!
#6776
b11011110 (
1!
#6781
b1010011 (
0!
#6786
b10101 (
1!
#6791
b10110011 (
0!
#6796
b10011111 (
1!
#6801
b11101000 (
0!
#6806
b10100111 (
1!
#6811
b100100 (
0!
#6816
1!
#6821
0!
#6826
1!
#6831
0!
#6836
1!
#6841
0!
#6846
1!
#6851
0!
#6856
1#
1!
#6861
0!
#6866
1!
#6866
0%
#6871
0!
#6876
0#
1!
#6881
b1110111 )
0!
#6886
1!
#6891
0!
#6896
1!
#6901
0!
#6906
1!
#6911
0!
#6916
1$
1!
#6921
0!
#6926
1!
#6931
0!
#6936
0$
1!
#6936
1%
#6941
b10101010 (
0!
#6946
b10101011 (
1!
#6951
b1011 (
0!
#6956
b11100110 (
1!
#6961
b11100010 (
0!
#6966
b11110011 (
1!
#6971
b1111000 (
0!
#6976
b100111 (
1!
#6981
b11100 (
0!
#6986
b11011 (
1!
#6991
b11010000 (
0!
#6996
b1111110 (
1!
#7001
b11100001 (
0!
#7006
b1011111 (
1!
#7011
b1100011 (
0!
#7016
b11011100 (
1!
#7021
b1110101 (
0!
#7026
b10000 (
1!
#7031
b11110011 (
0!
#7036
1!
#7041
0!
#7046
1!
#7051
0!
#7056
1!
#7061
0!
#7066
1!
#7071
0!
#7076
1!
#7081
0!
#7086
1!
#7091
0!
#7096
1!
#7101
0!
#7106
1!
#7111
0!
#7116
1!
#7121
0!
#7126
1!
#7131
0!
#7136
1$
1!
#7141
0!
#7146
1!
#7151
0!
#7156
0$
1!
#7161
b11000101 (
0!
#7166
b1001111 (
1!
#7171
b10100 (
0!
#7176
b1101101 (
1!
#7181
b101101 (
0!
#7186
b1101000 (
1!
#7191
b10000010 (
0!
#7196
b11100000 (
1!
#7201
b111 (
0!
#7206
b1101010 (
1!
#7211
b10000111 (
0!
#7216
b101011 (
1!
#7221
b10100 (
0!
#7226
b110011 (
1!
#7231
b110111 (
0!
#7236
b11111010 (
1!
#7241
b10101 (
0!
#7246
b101010 (
1!
#7251
b1110011 (
0!
#7256
1!
#7261
0!
#7266
1!
#7271
0!
#7276
1#
1!
#7281
0!
#7286
1!
#7286
0%
#7291
0!
#7296
0#
1!
#7301
b1101100 )
0!
#7306
1!
#7311
0!
#7316
1!
#7321
0!
#7326
1!
#7331
0!
#7336
1!
#7341
0!
#7346
1!
#7351
0!
#7356
1$
1!
#7361
0!
#7366
1!
#7371
0!
#7376
0$
1!
#7376
1%
#7381
b111101 (
0!
#7386
b1000110 (
1!
#7391
b10001110 (
0!
#7396
b1101 (
1!
#7401
b11000101 (
0!
#7406
b1101111 (
1!
#7411
b1101100 (
0!
#7416
b101000 (
1!
#7421
b1001100 (
0!
#7426
b11100001 (
1!
#7431
b111001 (
0!
#7436
b111111 (
1!
#7441
b10100111 (
0!
#7446
b10001000 (
1!
#7451
b1010011 (
0!
#7456
b10100 (
1!
#7461
b10110101 (
0!
#7466
b10111011 (
1!
#7471
b10010110 (
0!
#7476
1!
#7481
0!
#7486
1!
#7491
0!
#7496
1!
#7501
0!
#7506
1!
#7511
0!
#7516
1!
